{
    "success":  true,
    "data":  {
                 "products":  [
                                  {
                                      "id":  "94233bf0-f302-4b8c-84a9-8589f5df752c",
                                      "name":  "Personalized Photo Mug",
                                      "description":  "Ceramic mug customized with your photo or name, ideal for birthdays, anniversaries, and office gifting.",
                                      "price":  349,
                                      "category":  "Personalized Gifts",
                                      "tags":  [
                                                   "photo mug",
                                                   "personalized gift",
                                                   "coffee mug",
                                                   "custom mug"
                                               ],
                                      "images":  [
                                                     "https://images.unsplash.com/photo-1577937927133-66ef06acdf18?auto=format&fit=crop&q=80&w=800"
                                                 ],
                                      "stock":  25,
                                      "is_active":  true,
                                      "created_at":  "2026-04-29T09:44:39.771895+00:00",
                                      "updated_at":  "2026-04-29T09:44:39.771895+00:00"
                                  },
                                  {
                                      "id":  "0f4e4839-2a06-4b5a-8203-32f65f6793fb",
                                      "name":  "Wooden Photo Frame with Name",
                                      "description":  "Natural wooden frame where you can add your photo plus a custom name or short message for loved ones.",
                                      "price":  799,
                                      "category":  "Home Decor",
                                      "tags":  [
                                                   "photo frame",
                                                   "wooden frame",
                                                   "personalized frame",
                                                   "gift for parents"
                                               ],
                                      "images":  [
                                                     "https://images.unsplash.com/photo-1583847268964-b28dc8f51f92?auto=format&fit=crop&q=80&w=800"
                                                 ],
                                      "stock":  18,
                                      "is_active":  true,
                                      "created_at":  "2026-04-29T09:44:39.771895+00:00",
                                      "updated_at":  "2026-04-29T09:44:39.771895+00:00"
                                  },
                                  {
                                      "id":  "f4864070-7452-4e6b-b851-4b7c148761dd",
                                      "name":  "LED Message Board Lamp",
                                      "description":  "Acrylic LED lamp with a writable surface where you can write notes or romantic messages.",
                                      "price":  1299,
                                      "category":  "Home Decor",
                                      "tags":  [
                                                   "LED lamp",
                                                   "message board",
                                                   "desk lamp",
                                                   "creative gift"
                                               ],
                                      "images":  [
                                                     "https://images.unsplash.com/photo-1563089145-599997674d42?auto=format&fit=crop&q=80&w=800"
                                                 ],
                                      "stock":  15,
                                      "is_active":  true,
                                      "created_at":  "2026-04-29T09:44:39.771895+00:00",
                                      "updated_at":  "2026-04-29T09:44:39.771895+00:00"
                                  },
                                  {
                                      "id":  "2060e164-fb34-4df6-9807-ec0bfa066df0",
                                      "name":  "Personalized Photo Cushion Cover",
                                      "description":  "Soft cushion cover printed with your chosen photo, great for sofa, bed, or couple‑gift sets.",
                                      "price":  649,
                                      "category":  "Home Decor",
                                      "tags":  [
                                                   "cushion",
                                                   "photo cushion",
                                                   "personalized cushion",
                                                   "home decor"
                                               ],
                                      "images":  [
                                                     "https://images.unsplash.com/photo-1586023492125-27b2c045efd7?auto=format&fit=crop&q=80&w=800"
                                                 ],
                                      "stock":  22,
                                      "is_active":  true,
                                      "created_at":  "2026-04-29T09:44:39.771895+00:00",
                                      "updated_at":  "2026-04-29T09:44:39.771895+00:00"
                                  },
                                  {
                                      "id":  "311d6087-a07a-4907-8274-09b2be991da1",
                                      "name":  "Engraved Wooden Keychain",
                                      "description":  "Minimal wooden keychain with one‑line engraving, perfect as a pocket‑friendly gift for friends or partners.",
                                      "price":  399,
                                      "category":  "Accessories",
                                      "tags":  [
                                                   "keychain",
                                                   "personalized keychain",
                                                   "engraved gift",
                                                   "wooden gift"
                                               ],
                                      "images":  [
                                                     "https://images.unsplash.com/photo-1622560480605-d83c853bc5c3?auto=format&fit=crop&q=80&w=800"
                                                 ],
                                      "stock":  30,
                                      "is_active":  true,
                                      "created_at":  "2026-04-29T09:44:39.771895+00:00",
                                      "updated_at":  "2026-04-29T09:44:39.771895+00:00"
                                  },
                                  {
                                      "id":  "a4d717d5-ae89-42fa-b8f5-9c72fbf22e42",
                                      "name":  "Rotating Rose Teddy Box",
                                      "description":  "Elegant box with a rotating artificial rose, LED light, and a cute teddy bear for romantic occasions.",
                                      "price":  1899,
                                      "category":  "Romantic Gifts",
                                      "tags":  [
                                                   "teddy bear",
                                                   "rose teddy box",
                                                   "lover gift",
                                                   "anniversary gift"
                                               ],
                                      "images":  [
                                                     "https://images.unsplash.com/photo-1526047932273-341f2a7631f9?auto=format&fit=crop&q=80&w=800"
                                                 ],
                                      "stock":  12,
                                      "is_active":  true,
                                      "created_at":  "2026-04-29T09:44:39.771895+00:00",
                                      "updated_at":  "2026-04-29T09:44:39.771895+00:00"
                                  },
                                  {
                                      "id":  "44496c23-06d0-4426-91d7-e16abcf4b521",
                                      "name":  "3D Photo Crystal Cube",
                                      "description":  "Glass‑like cube with laser‑engraved 3D photo, ideal as a desk or anniversary gift.",
                                      "price":  1199,
                                      "category":  "Personalized Gifts",
                                      "tags":  [
                                                   "crystal cube",
                                                   "3D photo",
                                                   "engraved gift",
                                                   "desk gift"
                                               ],
                                      "images":  [
                                                     "https://images.unsplash.com/photo-1602143407151-7111542de6e8?auto=format&fit=crop&q=80&w=800"
                                                 ],
                                      "stock":  18,
                                      "is_active":  true,
                                      "created_at":  "2026-04-29T09:44:39.771895+00:00",
                                      "updated_at":  "2026-04-29T09:44:39.771895+00:00"
                                  },
                                  {
                                      "id":  "019fb1bd-12b6-4003-9861-bd67f9a4dfa1",
                                      "name":  "Personalized Diary / Notebook",
                                      "description":  "A5‑size notebook with custom cover text or name, great for students, professionals, and travel lovers.",
                                      "price":  449,
                                      "category":  "Stationery",
                                      "tags":  [
                                                   "notebook",
                                                   "personalized diary",
                                                   "custom cover",
                                                   "college gift"
                                               ],
                                      "images":  [
                                                     "https://images.unsplash.com/photo-1531346878377-a5be20888e57?auto=format&fit=crop&q=80&w=800"
                                                 ],
                                      "stock":  25,
                                      "is_active":  true,
                                      "created_at":  "2026-04-29T09:44:39.771895+00:00",
                                      "updated_at":  "2026-04-29T09:44:39.771895+00:00"
                                  },
                                  {
                                      "id":  "52b272d3-5c27-4bbc-85a5-2a882af04981",
                                      "name":  "Personalized Canvas Print",
                                      "description":  "High‑quality photo printed on canvas, framed or unframed, for family portraits or couple art.",
                                      "price":  1699,
                                      "category":  "Wall Art",
                                      "tags":  [
                                                   "canvas print",
                                                   "photo print",
                                                   "wall art",
                                                   "personalized gift"
                                               ],
                                      "images":  [
                                                     "https://images.unsplash.com/photo-1579783902614-a3fb3927b6a5?auto=format&fit=crop&q=80&w=800"
                                                 ],
                                      "stock":  16,
                                      "is_active":  true,
                                      "created_at":  "2026-04-29T09:44:39.771895+00:00",
                                      "updated_at":  "2026-04-29T09:44:39.771895+00:00"
                                  },
                                  {
                                      "id":  "ed1db645-23ce-47e5-8074-d4e6e0357fe5",
                                      "name":  "Desk Organizer with Pen Holder",
                                      "description":  "Wooden desk tray to organize pens, notebooks, and small office items, ideal for corporate gifting.",
                                      "price":  599,
                                      "category":  "Office \u0026 Desk",
                                      "tags":  [
                                                   "desk organizer",
                                                   "pen holder",
                                                   "office gift",
                                                   "wooden desk"
                                               ],
                                      "images":  [
                                                     "https://images.unsplash.com/photo-1591129841117-3adfd313e34f?auto=format&fit=crop&q=80&w=800"
                                                 ],
                                      "stock":  20,
                                      "is_active":  true,
                                      "created_at":  "2026-04-29T09:44:39.771895+00:00",
                                      "updated_at":  "2026-04-29T09:44:39.771895+00:00"
                                  },
                                  {
                                      "id":  "c6748aa2-fb68-4f7c-84fe-c9421fdcec4b",
                                      "name":  "Aromatherapy Candle Gift Set",
                                      "description":  "Soy‑wax scented candles in lavender, vanilla, or sandalwood, delivered in a premium gift box.",
                                      "price":  999,
                                      "category":  "Self‑Care",
                                      "tags":  [
                                                   "candle gift set",
                                                   "aromatherapy candles",
                                                   "self‑care gift",
                                                   "relaxation gift"
                                               ],
                                      "images":  [
                                                     "https://images.unsplash.com/photo-1596638787647-904d822d751e?auto=format&fit=crop&q=80&w=800"
                                                 ],
                                      "stock":  15,
                                      "is_active":  true,
                                      "created_at":  "2026-04-29T09:44:39.771895+00:00",
                                      "updated_at":  "2026-04-29T09:44:39.771895+00:00"
                                  },
                                  {
                                      "id":  "92237a42-627b-47ee-b05a-e4565b139fc1",
                                      "name":  "Mini Succulent Plant Set",
                                      "description":  "Set of 3–5 small indoor succulents in cute pots, perfect for office desks or new‑home gifts.",
                                      "price":  699,
                                      "category":  "Plants",
                                      "tags":  [
                                                   "succulent plant",
                                                   "indoor plant",
                                                   "office gift",
                                                   "home decor"
                                               ],
                                      "images":  [
                                                     "https://images.unsplash.com/photo-1459411552884-841db9b3cc2a?auto=format&fit=crop&q=80&w=800"
                                                 ],
                                      "stock":  24,
                                      "is_active":  true,
                                      "created_at":  "2026-04-29T09:44:39.771895+00:00",
                                      "updated_at":  "2026-04-29T09:44:39.771895+00:00"
                                  },
                                  {
                                      "id":  "d7f498e3-bb72-404b-8ed0-6d6be45c4186",
                                      "name":  "Personalized T‑Shirt",
                                      "description":  "Cotton t‑shirt with custom text or photo print, great for couples, friends, and family groups.",
                                      "price":  799,
                                      "category":  "Apparel",
                                      "tags":  [
                                                   "personalized tshirt",
                                                   "custom tee",
                                                   "couple gift",
                                                   "friends gift"
                                               ],
                                      "images":  [
                                                     "https://images.unsplash.com/photo-1521572163474-6864f9cf17ab?auto=format&fit=crop&q=80&w=800"
                                                 ],
                                      "stock":  28,
                                      "is_active":  true,
                                      "created_at":  "2026-04-29T09:44:39.771895+00:00",
                                      "updated_at":  "2026-04-29T09:44:39.771895+00:00"
                                  },
                                  {
                                      "id":  "bf4f8385-2307-490a-8a94-10477d280a4c",
                                      "name":  "LED Phone Stand with Light",
                                      "description":  "Adjustable phone stand with built‑in LED light, perfect for studying, watching videos, or night‑time use.",
                                      "price":  499,
                                      "category":  "Tech Accessories",
                                      "tags":  [
                                                   "phone stand",
                                                   "LED stand",
                                                   "phone holder",
                                                   "study essentials"
                                               ],
                                      "images":  [
                                                     "https://images.unsplash.com/photo-1616348436168-de43ad0db179?auto=format&fit=crop&q=80&w=800"
                                                 ],
                                      "stock":  22,
                                      "is_active":  true,
                                      "created_at":  "2026-04-29T09:44:39.771895+00:00",
                                      "updated_at":  "2026-04-29T09:44:39.771895+00:00"
                                  },
                                  {
                                      "id":  "d82e44ec-ab4f-42c8-9e9a-8416a0a05bb9",
                                      "name":  "Personalized Love Puzzle Box",
                                      "description":  "100–200‑piece photo puzzle made from a couple or family collage, designed as a fun keepsake.",
                                      "price":  849,
                                      "category":  "Personalized Gifts",
                                      "tags":  [
                                                   "photo puzzle",
                                                   "love puzzle",
                                                   "personalized gift",
                                                   "couple gift"
                                               ],
                                      "images":  [
                                                     "https://images.unsplash.com/photo-1494578379344-d6c710782a3d?auto=format&fit=crop&q=80&w=800"
                                                 ],
                                      "stock":  18,
                                      "is_active":  true,
                                      "created_at":  "2026-04-29T09:44:39.771895+00:00",
                                      "updated_at":  "2026-04-29T09:44:39.771895+00:00"
                                  },
                                  {
                                      "id":  "c35effcc-4aec-4e02-b88d-635233ec45aa",
                                      "name":  "LED Digital Photo Frame",
                                      "description":  "Small digital frame that auto‑flips between photos, perfect for parents or grandparents.",
                                      "price":  1999,
                                      "category":  "Home Decor",
                                      "tags":  [
                                                   "digital photo frame",
                                                   "LED frame",
                                                   "memory gift",
                                                   "parents gift"
                                               ],
                                      "images":  [
                                                     "https://images.unsplash.com/photo-1501594907352-04cda38ebc29?auto=format&fit=crop&q=80&w=800"
                                                 ],
                                      "stock":  12,
                                      "is_active":  true,
                                      "created_at":  "2026-04-29T09:44:39.771895+00:00",
                                      "updated_at":  "2026-04-29T09:44:39.771895+00:00"
                                  },
                                  {
                                      "id":  "2ec53ea8-5380-421b-96f3-0462259cfaa9",
                                      "name":  "Van Gogh Wall Art Print",
                                      "description":  "Framed or poster‑style art print of Van Gogh paintings, ideal for room or office decor.",
                                      "price":  899,
                                      "category":  "Wall Art",
                                      "tags":  [
                                                   "wall art",
                                                   "Van Gogh print",
                                                   "framed poster",
                                                   "room decor"
                                               ],
                                      "images":  [
                                                     "https://images.unsplash.com/photo-1541185933-ef5d8ed016c2?auto=format&fit=crop&q=80&w=800"
                                                 ],
                                      "stock":  16,
                                      "is_active":  true,
                                      "created_at":  "2026-04-29T09:44:39.771895+00:00",
                                      "updated_at":  "2026-04-29T09:44:39.771895+00:00"
                                  },
                                  {
                                      "id":  "2db35671-f73d-4745-9f53-1daf9bfabec6",
                                      "name":  "Chocolate Snack Gift Hamper",
                                      "description":  "Curated gift box with chocolates, cookies, and dry fruits, great for birthdays and festivals.",
                                      "price":  1499,
                                      "category":  "Hampers",
                                      "tags":  [
                                                   "gift hamper",
                                                   "chocolate hamper",
                                                   "snack box",
                                                   "festive gift"
                                               ],
                                      "images":  [
                                                     "https://images.unsplash.com/photo-1549007994-cb92caebd54b?auto=format&fit=crop&q=80&w=800"
                                                 ],
                                      "stock":  14,
                                      "is_active":  true,
                                      "created_at":  "2026-04-29T09:44:39.771895+00:00",
                                      "updated_at":  "2026-04-29T09:44:39.771895+00:00"
                                  },
                                  {
                                      "id":  "c4b58718-51b4-4a4c-b4b0-9c20c136ca3e",
                                      "name":  "Personalized Office Tumbler",
                                      "description":  "Insulated stainless‑steel tumbler with name or logo, suitable for office, gym, or travel.",
                                      "price":  749,
                                      "category":  "Drinkware",
                                      "tags":  [
                                                   "tumbler",
                                                   "personalized tumbler",
                                                   "office gift",
                                                   "drinkware"
                                               ],
                                      "images":  [
                                                     "https://images.unsplash.com/photo-1602143407151-7111542de6e8?auto=format&fit=crop&q=80&w=800"
                                                 ],
                                      "stock":  21,
                                      "is_active":  true,
                                      "created_at":  "2026-04-29T09:44:39.771895+00:00",
                                      "updated_at":  "2026-04-29T09:44:39.771895+00:00"
                                  },
                                  {
                                      "id":  "c5c05347-5c1e-4db4-82d4-83edf605bb84",
                                      "name":  "Couple Keychain Set",
                                      "description":  "Matching pair of engraved metal keychains for couples, best friends, or siblings.",
                                      "price":  599,
                                      "category":  "Accessories",
                                      "tags":  [
                                                   "keychain set",
                                                   "couple gift",
                                                   "best friend gift",
                                                   "engraved gift"
                                               ],
                                      "images":  [
                                                     "https://images.unsplash.com/photo-1576618148400-f54bed99fcfd?auto=format&fit=crop&q=80&w=800"
                                                 ],
                                      "stock":  26,
                                      "is_active":  true,
                                      "created_at":  "2026-04-29T09:44:39.771895+00:00",
                                      "updated_at":  "2026-04-29T09:44:39.771895+00:00"
                                  }
                              ],
                 "total":  25,
                 "page":  1,
                 "limit":  20,
                 "totalPages":  2
             }
}
